[api-updater (non-obsolete-error-filter)] 20.06.2022 15:39:35 : Starting D:/2020.3.28f1/Editor/Data/Tools/ScriptUpdater/APIUpdater.NonObsoleteApiUpdaterDetector.exe
[api-updater (non-obsolete-error-filter)] 
----------------------------------
jit/startup time      : 1669,3463ms
moved types parse time: 158ms
candidates parse time : 5ms
C# parse time         : 1487ms
candidates check time : 99ms
console write time    : 1ms

[api-updater (non-obsolete-error-filter)] 21.06.2022 16:50:19 : Starting D:/2020.3.28f1/Editor/Data/Tools/ScriptUpdater/APIUpdater.NonObsoleteApiUpdaterDetector.exe
[api-updater (non-obsolete-error-filter)] 
----------------------------------
jit/startup time      : 1770,4793ms
moved types parse time: 78ms
candidates parse time : 1ms
C# parse time         : 1054ms
candidates check time : 57ms
console write time    : 1ms

[api-updater (non-obsolete-error-filter)] 21.06.2022 17:21:38 : Starting D:/2020.3.28f1/Editor/Data/Tools/ScriptUpdater/APIUpdater.NonObsoleteApiUpdaterDetector.exe
[api-updater (non-obsolete-error-filter)] 
----------------------------------
jit/startup time      : 144,246ms
moved types parse time: 77ms
candidates parse time : 2ms
C# parse time         : 394ms
candidates check time : 79ms
console write time    : 0ms

[api-updater (non-obsolete-error-filter)] 21.06.2022 17:22:03 : Starting D:/2020.3.28f1/Editor/Data/Tools/ScriptUpdater/APIUpdater.NonObsoleteApiUpdaterDetector.exe
[api-updater (non-obsolete-error-filter)] 
----------------------------------
jit/startup time      : 111,1762ms
moved types parse time: 81ms
candidates parse time : 2ms
C# parse time         : 294ms
candidates check time : 127ms
console write time    : 1ms

[api-updater (non-obsolete-error-filter)] 21.06.2022 17:27:17 : Starting D:/2020.3.28f1/Editor/Data/Tools/ScriptUpdater/APIUpdater.NonObsoleteApiUpdaterDetector.exe
[api-updater (non-obsolete-error-filter)] 
----------------------------------
jit/startup time      : 229,5617ms
moved types parse time: 70ms
candidates parse time : 3ms
C# parse time         : 357ms
candidates check time : 71ms
console write time    : 0ms

[api-updater (non-obsolete-error-filter)] 22.06.2022 8:51:01 : Starting D:/2020.3.28f1/Editor/Data/Tools/ScriptUpdater/APIUpdater.NonObsoleteApiUpdaterDetector.exe
[api-updater (non-obsolete-error-filter)] 
----------------------------------
jit/startup time      : 1081,637ms
moved types parse time: 98ms
candidates parse time : 15ms
C# parse time         : 887ms
candidates check time : 49ms
console write time    : 1ms

[api-updater (non-obsolete-error-filter)] 22.06.2022 9:06:51 : Starting D:/2020.3.28f1/Editor/Data/Tools/ScriptUpdater/APIUpdater.NonObsoleteApiUpdaterDetector.exe
[api-updater (non-obsolete-error-filter)] 
----------------------------------
jit/startup time      : 129,7438ms
moved types parse time: 63ms
candidates parse time : 12ms
C# parse time         : 238ms
candidates check time : 73ms
console write time    : 1ms

[api-updater (non-obsolete-error-filter)] 22.06.2022 9:07:04 : Starting D:/2020.3.28f1/Editor/Data/Tools/ScriptUpdater/APIUpdater.NonObsoleteApiUpdaterDetector.exe
[api-updater (non-obsolete-error-filter)] 
----------------------------------
jit/startup time      : 81,4674ms
moved types parse time: 58ms
candidates parse time : 1ms
C# parse time         : 242ms
candidates check time : 47ms
console write time    : 0ms

[api-updater (non-obsolete-error-filter)] 22.06.2022 9:07:09 : Starting D:/2020.3.28f1/Editor/Data/Tools/ScriptUpdater/APIUpdater.NonObsoleteApiUpdaterDetector.exe
[api-updater (non-obsolete-error-filter)] 
----------------------------------
jit/startup time      : 96,9373ms
moved types parse time: 109ms
candidates parse time : 2ms
C# parse time         : 261ms
candidates check time : 46ms
console write time    : 1ms

