%YAML 1.1
%TAG !u! tag:unity3d.com,2011:
--- !u!1 &4040324358145826351
GameObject:
  m_ObjectHideFlags: 0
  m_CorrespondingSourceObject: {fileID: 0}
  m_PrefabInstance: {fileID: 0}
  m_PrefabAsset: {fileID: 0}
  serializedVersion: 6
  m_Component:
  - component: {fileID: 3600736102433907459}
  - component: {fileID: 8298246428099453381}
  m_Layer: 0
  m_Name: Pistol
  m_TagString: Untagged
  m_Icon: {fileID: 0}
  m_NavMeshLayer: 0
  m_StaticEditorFlags: 0
  m_IsActive: 1
--- !u!4 &3600736102433907459
Transform:
  m_ObjectHideFlags: 0
  m_CorrespondingSourceObject: {fileID: 0}
  m_PrefabInstance: {fileID: 0}
  m_PrefabAsset: {fileID: 0}
  m_GameObject: {fileID: 4040324358145826351}
  m_LocalRotation: {x: -0, y: -0, z: -0, w: 1}
  m_LocalPosition: {x: 0, y: 0, z: 0}
  m_LocalScale: {x: 1, y: 1, z: 1}
  m_Children: []
  m_Father: {fileID: 0}
  m_RootOrder: 0
  m_LocalEulerAnglesHint: {x: 0, y: 0, z: 0}
--- !u!114 &8298246428099453381
MonoBehaviour:
  m_ObjectHideFlags: 0
  m_CorrespondingSourceObject: {fileID: 0}
  m_PrefabInstance: {fileID: 0}
  m_PrefabAsset: {fileID: 0}
  m_GameObject: {fileID: 4040324358145826351}
  m_Enabled: 1
  m_EditorHideFlags: 0
  m_Script: {fileID: 11500000, guid: c2f0ad9b63c8b3f42ac7c1245b5b855e, type: 3}
  m_Name: 
  m_EditorClassIdentifier: 
  _label: "\u041F\u0438\u0441\u0442\u043E\u043B\u0435\u0442"
  _price: 1
  _icon: {fileID: 21300000, guid: 7af76a15292521742af505ea70cf4d11, type: 3}
  _isBuyed: 0
  Bullet: {fileID: 2509540095889516997, guid: 8adb635d41e15394a9263df9a0119b50, type: 3}
